Check MR Images
================
17.11.2020

## Read file names of images

``` r
info <- images_info("../80_images", extension = "dcm")
info
#> # A tibble: 320 x 5
#>    patient kind  type      series    file_path                                  
#>    <chr>   <chr> <chr>     <chr>     <chr>                                      
#>  1 1018642 AT    dicom_co… ../80_im… ../80_images/1018642/dicom_color/1.2.840.1…
#>  2 1018642 MRI   image_ba… ../80_im… ../80_images/1018642/image_base/1.2.840.19…
#>  3 1018642 SCAT  dicom_red ../80_im… ../80_images/1018642/dicom_red/1.2.840.191…
#>  4 1018642 VSAT  dicom_bl… ../80_im… ../80_images/1018642/dicom_blue/1.2.840.19…
#>  5 1023660 AT    dicom_co… ../80_im… ../80_images/1023660/dicom_color/1.2.840.1…
#>  6 1023660 MRI   image_ba… ../80_im… ../80_images/1023660/image_base/1.2.840.19…
#>  7 1023660 SCAT  dicom_red ../80_im… ../80_images/1023660/dicom_red/1.2.840.191…
#>  8 1023660 VSAT  dicom_bl… ../80_im… ../80_images/1023660/dicom_blue/1.2.840.19…
#>  9 1040979 AT    dicom_co… ../80_im… ../80_images/1040979/dicom_color/1.2.840.1…
#> 10 1040979 MRI   image_ba… ../80_im… ../80_images/1040979/image_base/1.2.840.19…
#> # … with 310 more rows
```
…
