…
    (80, 768, 384, 2)

## Important Note

We will crop all images to 768x384 and prepare additional data with
resampled (smaller) images: 384x192 and 192x96. Note that both
dimensions 768x384 are divisble by 128 (768/2^7=6, 384/2^7=3).

## Read Images Info

``` r
info <- images_info("../80_images", extension = "dcm")
info
#> # A tibble: 320 x 5
#>    patient kind  type      series    file_path                                  
#>    <chr>   <chr> <chr>     <chr>     <chr>                                      
#>  1 1018642 AT    dicom_co… ../80_im… ../80_images/1018642/dicom_color/1.2.840.1…
#>  2 1018642 MRI   image_ba… ../80_im… ../80_images/1018642/image_base/1.2.840.19…
#>  3 1018642 SCAT  dicom_red ../80_im… ../80_images/1018642/dicom_red/1.2.840.191…
#>  4 1018642 VSAT  dicom_bl… ../80_im… ../80_images/1018642/dicom_blue/1.2.840.19…
#>  5 1023660 AT    dicom_co… ../80_im… ../80_images/1023660/dicom_color/1.2.840.1…
#>  6 1023660 MRI   image_ba… ../80_im… ../80_images/1023660/image_base/1.2.840.19…
#>  7 1023660 SCAT  dicom_red ../80_im… ../80_images/1023660/dicom_red/1.2.840.191…
#>  8 1023660 VSAT  dicom_bl… ../80_im… ../80_images/1023660/dicom_blue/1.2.840.19…
#>  9 1040979 AT    dicom_co… ../80_im… ../80_images/1040979/dicom_color/1.2.840.1…
#> 10 1040979 MRI   image_ba… ../80_im… ../80_images/1040979/image_base/1.2.840.19…
#> # … with 310 more rows
```

``` r
info_mri <- info %>% filter(kind == "MRI")
info_mri
#> # A tibble: 58 x 5
#>    patient kind  type     series    file_path                                   
#>    <chr>   <chr> <chr>    <chr>     <chr>                                       
#>  1 1018642 MRI   image_b… ../80_im… ../80_images/1018642/image_base/1.2.840.191…
#>  2 1023660 MRI   image_b… ../80_im… ../80_images/1023660/image_base/1.2.840.191…
#>  3 1040979 MRI   image_b… ../80_im… ../80_images/1040979/image_base/1.2.840.191…
#>  4 1041204 MRI   image_b… ../80_im… ../80_images/1041204/image_base/1.2.840.191…
#>  5 1095912 MRI   image_b… ../80_im… ../80_images/1095912/image_base/1.2.840.191…
#>  6 1176610 MRI   image_b… ../80_im… ../80_images/1176610/image_base/1.2.840.191…
#>  7 1185364 MRI   image_b… ../80_im… ../80_images/1185364/image_base/1.2.840.191…
#>  8 163855  MRI   image_b… ../80_im… ../80_images/163855/image_base/1.2.840.1910…
#>  9 306001  MRI   image_b… ../80_im… ../80_images/306001/image_base/1.2.840.1910…
#> 10 306637  MRI   image_b… ../80_im… ../80_images/306637/image_base/1.2.840.1910…
#> # … with 48 more rows
```
…
