…
``` r
library(devtools)
#> Loading required package: usethis
library(fs)
```

``` r
fs::dir_info(
    all = TRUE,
    recurse = TRUE,
    regexp = "^(.git|.Rproj.user|.+\\.(html|md))/.+",
    invert = TRUE) %>% 
  dplyr::select(path, type)
#> # A tibble: 58 x 2
#>    path                        type     
#>    <fs::path>                  <fct>    
#>  1 .Rbuildignore               file     
#>  2 .Rhistory                   file     
#>  3 .Rproj.user                 directory
#>  4 .git                        directory
#>  5 .gitignore                  file     
#>  6 00-check_mr_images.Rmd      file     
#>  7 00-check_mr_images.md       file     
#>  8 10-mr_images_to_tensors.Rmd file     
#>  9 10-mr_images_to_tensors.md  file     
#> 10 DESCRIPTION                 file     
#> # … with 48 more rows
```
…
