…
``` r
fs::dir_info(
    all = TRUE,
    recurse = TRUE,
    regexp = "^(.git|.Rproj.user)/.+",
    invert = TRUE) %>% 
  dplyr::select(path, type)
#> # A tibble: 25 x 2
#>    path            type     
#>    <fs::path>      <fct>    
#>  1 .Rbuildignore   file     
#>  2 .Rproj.user     directory
#>  3 .git            directory
#>  4 .gitignore      file     
#>  5 DESCRIPTION     file     
#>  6 LICENSE         file     
#>  7 LICENSE.md      file     
#>  8 NAMESPACE       file     
#>  9 R               directory
#> 10 R/make_arrays.R file     
#> # … with 15 more rows
```
…
